{
  "extensionName": {
    "message": "chlorine-http",
    "description": "Name of the extension."
  },

  "extensionDescription": {
    "message": "Make user aware of insecure http sites",
    "description": "Description of the extension."
  },

  "insecure": {
    "message": "This page is insecure"
  },
  "link": {
    "message": "https://support.mozilla.org/en-US/kb/how-do-i-tell-if-my-connection-is-secure"
  },
  "trySecure": {
    "message": "Try to get a secure version of this page"
  },
  "close": {
    "message": "Close this warning"
  }

}
